…
1     1 "Machine learning\r\n\r\nArticle\r\nTalk\r\nRead\r\nEdit\r\nView history\r\n\r\nTools\r…
> 
> library(tidytext)
> tidy_text <- text_df %>%
+   unnest_tokens(word, text)
> data(stop_words)
> stop_words <- rbind(stop_words,de)
> 
> tidy_text <- tidy_text %>%
+   anti_join(stop_words)
Joining with `by = join_by(word)`
> 
> tidy_text %>%
+   count(word, sort = TRUE)
# A tibble: 1,899 × 2
   word           n
   <chr>      <int>
 1 learning     252
 2 machine      137
 3 data         109
 4 training      49
 5 algorithms    46
 6 model         39
 7 artificial    37
 8 set           33
 9 models        27
10 neural        27
# ℹ 1,889 more rows
# ℹ Use `print(n = ...)` to see more rows
> 
> # Tworzenie bigramow
> 
> text_bigrams <- text_df %>%
+   unnest_tokens(bigram, text, token = "ngrams", n = 2)
> text_bigrams
# A tibble: 8,552 × 2
    line bigram          
   <dbl> <chr>           
 1     1 machine learning
 2     1 learning article
 3     1 article talk    
 4     1 talk read       
 5     1 read edit       
 6     1 edit view       
 7     1 view history    
 8     1 history tools   
 9     1 tools from      
10     1 from wikipedia  
# ℹ 8,542 more rows
# ℹ Use `print(n = ...)` to see more rows
> text_bigrams %>%
+   count(bigram, sort = TRUE)
# A tibble: 6,471 × 2
   bigram                  n
   <chr>               <int>
 1 machine learning      123
 2 of the                 40
 3 in the                 33
 4 is a                   26
 5 learning algorithms    26
 6 can be                 21
 7 of machine             20
 8 learning is            19
 9 main article           19
10 of a                   19
# ℹ 6,461 more rows
# ℹ Use `print(n = ...)` to see more rows
> 
> library(tidyr)
> bigrams_separated <- text_bigrams %>%
+   separate(bigram, c("word1", "word2"), sep = " ")
> bigrams_filtered <- bigrams_separated %>%
+   filter(!word1 %in% stop_words$word) %>%
+   filter(!word2 %in% stop_words$word)
> 
> bigram_counts <- bigrams_filtered %>%
+   count(word1, word2, sort = TRUE)
> bigram_counts
# A tibble: 2,072 × 3
   word1        word2            n
   <chr>        <chr>        <int>
 1 machine      learning       123
 2 learning     algorithms      26
 3 main         article         19
 4 supervised   learning        17
 5 training     data            14
 6 data         mining          13
 7 unsupervised learning        13
 8 artificial   intelligence    12
 9 neural       networks        12
10 artificial   neural          10
# ℹ 2,062 more rows
# ℹ Use `print(n = ...)` to see more rows
> 
> bigrams_united <- bigrams_filtered %>%
+   unite(bigram, word1, word2, sep = " ")
> bigrams_united
# A tibble: 2,657 × 2
    line bigram           
   <dbl> <chr>            
 1     1 machine learning 
 2     1 learning article 
 3     1 article talk     
 4     1 talk read        
 5     1 read edit        
 6     1 edit view        
 7     1 view history     
 8     1 history tools    
 9     1 free encyclopedia
10     1 machine learning 
# ℹ 2,647 more rows
# ℹ Use `print(n = ...)` to see more rows
